%YAML 1.1
%TAG !u! tag:unity3d.com,2011:
--- !u!114 &-1469620913606082519
MonoBehaviour:
  m_ObjectHideFlags: 11
  m_CorrespondingSourceObject: {fileID: 0}
  m_PrefabInstance: {fileID: 0}
  m_PrefabAsset: {fileID: 0}
  m_GameObject: {fileID: 0}
  m_Enabled: 1
  m_EditorHideFlags: 0
  m_Script: {fileID: 11500000, guid: d0353a89b1f911e48b9e16bdc9f2e058, type: 3}
  m_Name: 
  m_EditorClassIdentifier: 
  version: 7
--- !u!21 &2100000
Material:
  serializedVersion: 8
  m_ObjectHideFlags: 0
  m_CorrespondingSourceObject: {fileID: 0}
  m_PrefabInstance: {fileID: 0}
  m_PrefabAsset: {fileID: 0}
  m_Name: CuboPurpleDissolveMat
  m_Shader: {fileID: -6465566751694194690, guid: 5e4b7e477c56a6144a236280b1206c18,
    type: 3}
  m_Parent: {fileID: 0}
  m_ModifiedSerializedProperties: 0
  m_ValidKeywords:
  - _ALPHATEST_ON
  m_InvalidKeywords: []
  m_LightmapFlags: 2
  m_EnableInstancingVariants: 1
  m_DoubleSidedGI: 0
  m_CustomRenderQueue: -1
  stringTagMap:
    RenderType: TransparentCutout
  disabledShaderPasses: []
  m_LockedProperties: 
  m_SavedProperties:
    serializedVersion: 3
    m_TexEnvs:
    - _AO:
        m_Texture: {fileID: 2800000, guid: c643ffec9f323c24b94ffa3660d92bad, type: 3}
        m_Scale: {x: 1, y: 1}
        m_Offset: {x: 0, y: 0}
    - _Albedo:
        m_Texture: {fileID: 2800000, guid: 20fcd7b75b00984439d60eae75dc264b, type: 3}
        m_Scale: {x: 1, y: 1}
        m_Offset: {x: 0, y: 0}
    - _Mask:
        m_Texture: {fileID: 2800000, guid: c2bdb1d770929d945958bea6d426ffea, type: 3}
        m_Scale: {x: 1, y: 1}
        m_Offset: {x: 0, y: 0}
    - _NormalMap:
        m_Texture: {fileID: 2800000, guid: da302845db4135046bf88ec7ff9a9d0a, type: 3}
        m_Scale: {x: 1, y: 1}
        m_Offset: {x: 0, y: 0}
    - _SampleTexture2D_0a85e1f0b5394f55bee001930e5dc601_Texture_1_Texture2D:
        m_Texture: {fileID: 2800000, guid: bd3f2d5ecfb505f42b5fe1545dab518b, type: 3}
        m_Scale: {x: 1, y: 1}
        m_Offset: {x: 0, y: 0}
    - _SampleTexture2D_0e03bbae34fa47c0996f5c43b1ea620b_Texture_1_Texture2D:
        m_Texture: {fileID: 2800000, guid: dd0fb4572a9d4874f87bd58fb1146382, type: 3}
        m_Scale: {x: 1, y: 1}
        m_Offset: {x: 0, y: 0}
    - _SampleTexture2D_61d68e36ee0746e7bb997db7303c172a_Texture_1_Texture2D:
        m_Texture: {fileID: 2800000, guid: bd86f32f966425e4dbe68ce437035903, type: 3}
        m_Scale: {x: 1, y: 1}
        m_Offset: {x: 0, y: 0}
    - _SampleTexture2D_aeb125392e3448cfa3d77d2b99a64beb_Texture_1_Texture2D:
        m_Texture: {fileID: 2800000, guid: 3676972ca7f3ebe42b16410a4fb22d99, type: 3}
        m_Scale: {x: 1, y: 1}
        m_Offset: {x: 0, y: 0}
    - _SampleTexture2D_d66ae74719074b09a51de8b9b848ee73_Texture_1_Texture2D:
        m_Texture: {fileID: 2800000, guid: bd3f2d5ecfb505f42b5fe1545dab518b, type: 3}
        m_Scale: {x: 1, y: 1}
        m_Offset: {x: 0, y: 0}
    - _SampleTexture2D_e260de4c89454f48ae37225854664072_Texture_1_Texture2D:
        m_Texture: {fileID: 2800000, guid: dd0fb4572a9d4874f87bd58fb1146382, type: 3}
        m_Scale: {x: 1, y: 1}
        m_Offset: {x: 0, y: 0}
    - _SampleTexture2D_e592b25ab8a949be968cbff20c215f9b_Texture_1_Texture2D:
        m_Texture: {fileID: 2800000, guid: bd3f2d5ecfb505f42b5fe1545dab518b, type: 3}
        m_Scale: {x: 1, y: 1}
        m_Offset: {x: 0, y: 0}
    - unity_Lightmaps:
        m_Texture: {fileID: 0}
        m_Scale: {x: 1, y: 1}
        m_Offset: {x: 0, y: 0}
    - unity_LightmapsInd:
        m_Texture: {fileID: 0}
        m_Scale: {x: 1, y: 1}
        m_Offset: {x: 0, y: 0}
    - unity_ShadowMasks:
        m_Texture: {fileID: 0}
        m_Scale: {x: 1, y: 1}
        m_Offset: {x: 0, y: 0}
    m_Ints: []
    m_Floats:
    - _AlphaClip: 1
    - _AlphaToMask: 1
    - _Blend: 0
    - _BlendModePreserveSpecular: 1
    - _CastShadows: 1
    - _Cull: 0
    - _DetailAlbedoAdj: 0
    - _DetailAlbedoStregth: 0
    - _DissolverAmount: 0
    - _DstBlend: 0
    - _EdgeWidh: 0.03
    - _Height: 1
    - _Metallic: 0
    - _QueueControl: 0
    - _QueueOffset: 0
    - _RangeAO: 0
    - _RangeMask: 0
    - _RangeNormal: 1.5
    - _ReceiveShadows: 1
    - _ScaleNormal: 1
    - _Smoothness: 0.401
    - _SrcBlend: 1
    - _Surface: 0
    - _WorkflowMode: 1
    - _ZTest: 4
    - _ZWrite: 1
    - _ZWriteControl: 0
    - _noiseScale: 47.3
    - _useNoise: 1
    - _use_Noise: 1
    m_Colors:
    - _Director: {r: 0, g: 0.5, b: 0, a: 0}
    - _EdgeColor: {r: 1.8272651, g: 0, b: 3.4415908, a: 0}
  m_BuildTextureStacks: []
